RPhaeno Beispiel
…
Die Daten sind immernoch nur lazy loaded, um sie nun zu erhalten muss die Query abgeschickt werden mit collect()

Daten_rlp <- Daten_rlp %>% collect()
Daten_rlp

## # A tibble: 386,977 x 26
##    stations_id refjahr qualitaetsniveau pflanze_id phase_id eintrittsdatum
##          <int>   <int>            <int>      <int>    <int>          <int>
##  1        2561    1951                7        233        5       19510618
##  2        2561    1952                7        233        5       19520615
##  3        2561    1953                7        233        5       19530615
##  4        2561    1954                7        233        5       19540625
##  5        2561    1955                7        233        5       19550628
##  6        2561    1956                7        233        5       19560630
##  7        2561    1958                7        233        5       19580624
##  8        2561    1960                7        233        5       19600620
##  9        2561    1961                7        233        5       19610628
## 10        2561    1962                7        233        5       19620628
## # ... with 386,967 more rows, and 20 more variables: eintrittsdatum_qb <int>,
## #   jultag <int>, stationsname <chr>, lat <dbl>, lon <dbl>,
## #   stationshoehe <int>, naturraumgruppe_code <int>, naturraumgruppe <chr>,
## #   naturraum_code <int>, naturraum <chr>, datum_stationsaufloesung <chr>,
## #   bundesland <chr>, pflanze <chr>, phase <chr>, phasendefinition <chr>,
## #   bbch_code <int>, hinweis_bbch <chr>, phase_englisch <chr>,
## #   pflanze_englisch <chr>, pflanze_latein <chr>
…
src_crs und tar_crs muessen nicht angeben werden, als Default Werte wird 4326 fr src und 25832 als target angenommen, nur falls die Daten abweichen sollten oder man auf ein anderes Targetcrs wechseln mchte kann man dies angeben. coords_col ist default auf c(lon,lat) gesetzt und muss nur bei abweichung angegeben werden. remove gibt an ob die coords_col aus dem sf-Objekt gelscht werden soll. Default ja.

station_sf <- Stationen %>% 
  collect() %>% 
  #hier muss also nicht mehr eingetragen werden
  station_df_to_sf()
station_sf %>%  print(10,width=Inf) 

## Simple feature collection with 6504 features and 9 fields
## Geometry type: POINT
## Dimension:     XY
## Bounding box:  xmin: 288491.3 ymin: 5250228 xmax: 920753.2 ymax: 6096173
## Projected CRS: ETRS89 / UTM zone 32N
## # A tibble: 6,504 x 10
##    stations_id stationsname stationshoehe naturraumgruppe_code
##  *       <int> <chr>                <int>                <int>
##  1           3 Aachen                 202                   56
##  2          98 Altastenberg           780                   33
##  3         140 Altmersleben            35                   86
##  4         183 Arkona                  42                   71
##  5         198 Artern                 164                   48
##  6         222 Aue                    393                   42
##  7         282 Bamberg                240                   11
##  8         501 Birx                   739                   35
##  9         524 Bitterfeld              80                   88
## 10         596 Boltenhagen             15                   71
##    naturraumgruppe                             naturraum_code
##  * <chr>                                                <int>
##  1 Vennvorland                                           5610
##  2 Bergisch-Sauerlndisches Gebirge                      3330
##  3 Altmark                                               8620
##  4 Mecklenburgisch-Vorpommersches Kstengebiet           7140
##  5 Thringer Becken und Randplatten Nrg 48               4870
##  6 Erzgebirge                                            4230
##  7 Frnkisches Keuper-Lias-Land                          1170
##  8 Osthessisches Bergland                                3580
##  9 Elbe-Mulde-Tiefland                                   8800
## 10 Mecklenburgisch-Vorpommersches Kstengebiet           7100
##    naturraum                                           datum_stationsaufloesung
##  * <chr>                                               <chr>                   
##  1 Aachener Hgelland                                  27.02.2011              
##  2 Hochsauerland (Rothaargebirge)                      06.12.1954              
##  3 Stendaler Land                                      31.12.2019              
##  4 Hhen- und Binnenbodden von Nordrgen               31.12.2020              
##  5 Helme-Unstrut-Niederung                             31.12.2017              
##  6 Unteres Westerzgebirge                              31.12.2011              
##  7 Itz-Baunach-Hgelland                               30.09.2008              
##  8 Unteres Werratal                                    <NA>                    
##  9 Dahlen-Dbener Heide                                31.12.1974              
## 10 Nordwestmecklenburgisches Hgelland und Wismarbucht 31.12.2021              
##    bundesland                       geometry
##  * <chr>                         <POINT [m]>
##  1 Nordrhein-Westfalen    (295160.8 5629687)
##  2 Nordrhein-Westfalen    (462758.9 5670978)
##  3 Sachsen-Anhalt         (664056.2 5840117)
##  4 Mecklenburg-Vorpommern (785826.8 6068115)
##  5 Thringen              (659521.6 5693954)
##  6 Sachsen                (762852.8 5610908)
##  7 Bayern                   (637998 5526424)
##  8 Thringen              (574313.5 5598042)
##  9 Sachsen-Anhalt         (729519.6 5725465)
## 10 Mecklenburg-Vorpommern (643585.9 5986043)
## # ... with 6,494 more rows
…
Berechnen wir den mittleren Julianischen Tag der Haselblhbeginn zwischen 1991 und 2021 nach Naturrumen gruppiert:

Daten_rlp %>% 
  filter(pflanze=="Hasel",refjahr>1990 & refjahr<2022) %>%
  group_by(naturraum_code) %>% 
  summarize(mean_jultag=mean(jultag))

## # A tibble: 36 x 2
##    naturraum_code mean_jultag
##             <int>       <dbl>
##  1           1700        36.9
##  2           1710        37.0
##  3           1800        40.4
##  4           1920        44.9
##  5           1930        42.0
##  6           1940        49.0
##  7           1950        54.7
##  8           2200        31.3
##  9           2210        28.0
## 10           2270        36.5
## # ... with 26 more rows

Um dies nun als Karte darzustellen muessen wir die Daten wieder mit einer geometry darstellen:

Daten_rlp %>% 
  filter(pflanze=="Hasel",refjahr>1990 & refjahr<2022) %>%
  group_by(naturraum_code) %>% 
  summarize(mean_jultag=mean(jultag)) %>% 
  nr_df_to_sf(col2geom="naturraum_code",geomcol = "naturraum_code")

## # A tibble: 36 x 3
##    naturraum_code mean_jultag                                               geom
##             <int>       <dbl>                                 <MULTIPOLYGON [m]>
##  1           1700        36.9 (((429847.8 5492077, 430704.4 5491550, 431230.2 5~
##  2           1710        37.0 (((429478.7 5452745, 429134.9 5452360, 429149.8 5~
##  3           1800        40.4 (((400412.3 5474227, 400449.3 5473606, 400785.2 5~
##  4           1920        44.9 (((410233.5 5483190, 411229.1 5482926, 412145.7 5~
##  5           1930        42.0 (((394484.9 5518558, 394129 5517708, 394956.2 551~
##  6           1940        49.0 (((386036.2 5517555, 386411.1 5517380, 387435.6 5~
##  7           1950        54.7 (((384981.6 5521040, 387583.6 5521531, 389462.9 5~
##  8           2200        31.3 (((437834.6 5487549, 438763.2 5489610, 439939.7 5~
##  9           2210        28.0 (((453589.4 5522150, 453569.4 5520319, 453332.5 5~
## 10           2270        36.5 (((448537.5 5538042, 449204.3 5537685, 449866 553~
## # ... with 26 more rows
…
